####################
# hydrogen - Basic #
####################

| Hydrogen drums
`---------------

	* To list drumkits:

		- ls ~/.hydrogen/data/drumkits/

	* h2cli -k [drumkit]

	* Then aconnect # #
