##################
# emojis - Faces #
##################

+-----------------------------------------+
|             face-positive               |
+-----------------------------------------+

 1    U+1F600  😀   Grinning face
--------------------------------------------------------
 2    U+1F601  😁   Beaming face with smiling eyes
--------------------------------------------------------
 3    U+1F602  😂   Face with tears of joy
--------------------------------------------------------
 5    U+1F603  😃   Grinning face with big eyes
--------------------------------------------------------
 6    U+1F604  😄   Grinning face with smiling eyes
--------------------------------------------------------
 7    U+1F605  😅   Grinning face with sweat
--------------------------------------------------------
 8    U+1F606  😆   Grinning squinting face
--------------------------------------------------------
 9    U+1F609  😉   Winking face
--------------------------------------------------------
 10   U+1F60A  😊   Smiling face with smiling eyes
--------------------------------------------------------
 11   U+1F60B  😋   Face savoring food
--------------------------------------------------------
 12   U+1F60E  😎   Smiling face with sunglasses
--------------------------------------------------------
 13   U+1F60D  😍   Smiling face with heart eyes
--------------------------------------------------------
 14   U+1F618  😘   Face blowing a kiss
--------------------------------------------------------
 15   U+1F617  😗   Kissing face
--------------------------------------------------------
 16   U+1F619  😙   Kissing face with smiling eyes
--------------------------------------------------------
 17   U+1F61A  😚   Kissing face with closed eyes
--------------------------------------------------------
 18   U+263A   ☺    Smiling face
--------------------------------------------------------
 19   U+1F642  🙂   Slightly smiling face
--------------------------------------------------------

+-----------------------------------------+
|             face-neutral                |
+-----------------------------------------+

 20   U+1F610  😐   Neutral face
--------------------------------------------------------
 21   U+1F611  😑   Expressionless face
--------------------------------------------------------
 22   U+1F636  😶   Face without mouth
--------------------------------------------------------
 23   U+1F60F  😏   Smirking face
--------------------------------------------------------
 24   U+1F623  😣   Persevering face
--------------------------------------------------------
 25   U+1F625  😥   Sad but relieved face
--------------------------------------------------------
 26   U+1F62E  😮   Face with open mouth
--------------------------------------------------------
 27   U+1F62F  😯   Hushed face
--------------------------------------------------------
 28   U+1F62A  😪   Sleepy face
--------------------------------------------------------
 29   U+1F62B  😫   Tired face
--------------------------------------------------------
 30   U+1F634  😴   Sleeping face
--------------------------------------------------------
 31   U+1F60C  😌   Relieved face
--------------------------------------------------------
 32   U+1F61B  😛   Face with tongue
--------------------------------------------------------
 33   U+1F61C  😜   Winking face with tongue
--------------------------------------------------------
 34   U+1F61D  😝   Squinting face with tongue
--------------------------------------------------------
 35   U+1F612  😒   Unamused face
--------------------------------------------------------
 36   U+1F613  😓   Downcast face with sweat
--------------------------------------------------------
 37   U+1F614  😔   Pensive face
--------------------------------------------------------
 38   U+1F615  😕   Confused face
--------------------------------------------------------
 39   U+1F643  🙃   Upside-down face
--------------------------------------------------------
 40   U+1F632  😲   Astonished face
--------------------------------------------------------

+-----------------------------------------+
|             face-negative               |
+-----------------------------------------+

 41   U+2639   ☹   Frowning face
--------------------------------------------------------
 42   U+1F641  🙁   Slightly frowning face
--------------------------------------------------------
 43   U+1F616  😖   Confounded face
--------------------------------------------------------
 44   U+1F61E  😞   Disappointed face
--------------------------------------------------------
 45   U+1F61F  😟   Worried face
--------------------------------------------------------
 46   U+1F624  😤   Face with steam from nose
--------------------------------------------------------
 47   U+1F622  😢   Crying face
--------------------------------------------------------
 48   U+1F62D  😭   Loudly crying face
--------------------------------------------------------
 49   U+1F626  😦   Frowning face with open mouth
--------------------------------------------------------
 50   U+1F627  😧   Anguished face
--------------------------------------------------------
 51   U+1F628  😨   Fearful face
--------------------------------------------------------
 52   U+1F629  😩   Weary face
--------------------------------------------------------
 53   U+1F62C  😬   Grimacing face
--------------------------------------------------------
 54   U+1F630  😰   Anxious face with sweat
--------------------------------------------------------
 55   U+1F631  😱   Face screaming in fear
--------------------------------------------------------
 56   U+1F633  😳   Flushed face
--------------------------------------------------------
 57   U+1F635  😵   Dizzy face
--------------------------------------------------------
 58   U+1F621  😡   Pouting face
--------------------------------------------------------
 59   U+1F620  😠   Angry face
--------------------------------------------------------

+-----------------------------------------+
|               face-sick                 |
+-----------------------------------------+

 60   U+1F637  😷   Face with medical mask
--------------------------------------------------------

+-----------------------------------------+
|               face-role                 |
+-----------------------------------------+

 61   U+1F607  😇   Smiling face with halo
--------------------------------------------------------

+-----------------------------------------+
|              face-fantasy               |
+-----------------------------------------+

 62   U+1F608  😈   Smiling face with horns
--------------------------------------------------------
 63   U+2620   ☠   Skull and crossbones
--------------------------------------------------------

+-----------------------------------------+
|               cat-face                  |
+-----------------------------------------+

 64  U+1F63A   😺   Grinning cat face
--------------------------------------------------------
 65  U+1F638   😸   Grinning cat face with smiling eyes
--------------------------------------------------------
 66  U+1F639   😹   Cat face with tears of joy
--------------------------------------------------------
 67  U+1F63B   😻   Smiling cat face with heart-eyes
--------------------------------------------------------
 68  U+1F63C   😼   Cat face with wry smile
--------------------------------------------------------
 69  U+1F63D   😽   Kissing cat face
--------------------------------------------------------
 70  U+1F640   🙀   Wary cat face
--------------------------------------------------------
 71  U+1F63F   😿   Crying cat face
--------------------------------------------------------
 72  U+1F63E   😾   Pouting cat face
--------------------------------------------------------
